{
  "project_info": {
    "project_number": "274676971164",
    "firebase_url": "https://authentifikasi-b1f87.firebaseio.com",
    "project_id": "authentifikasi-b1f87",
    "storage_bucket": "authentifikasi-b1f87.appspot.com"
  },
  "client": [
    {
      "client_info": {
        "mobilesdk_app_id": "1:274676971164:android:c39bf93d439fc259",
        "android_client_info": {
          "package_name": "com.example.bima.pariwisatayogyakarte"
        }
      },
      "oauth_client": [
        {
          "client_id": "274676971164-rovjb215s11p8ch12b731lpnpuf3cdt1.apps.googleusercontent.com",
          "client_type": 1,
          "android_info": {
            "package_name": "com.example.bima.pariwisatayogyakarte",
            "certificate_hash": "f0ba70bdc7fc91d9f8bd7ccb72f82b6a09757d87"
          }
        },
        {
          "client_id": "274676971164-i96dk99bpotqbcpuej8hkoh8igqk2vb2.apps.googleusercontent.com",
          "client_type": 3
        }
      ],
      "api_key": [
        {
          "current_key": "AIzaSyC8A-01EmtX4NSbIXUmHln-xwkQLOKxeEw"
        }
      ],
      "services": {
        "analytics_service": {
          "status": 1
        },
        "appinvite_service": {
          "status": 2,
          "other_platform_oauth_client": [
            {
              "client_id": "274676971164-i96dk99bpotqbcpuej8hkoh8igqk2vb2.apps.googleusercontent.com",
              "client_type": 3
            }
          ]
        },
        "ads_service": {
          "status": 2
        }
      }
    }
  ],
  "configuration_version": "1"
}